HW 05 - Legos
…
Data

The data can be found in the dsbox package, and its called lego_sales. Since the dataset is distributed with the package, we dont need to load it separately; it becomes available to us when we load the package. You can find out more about the dataset by inspecting its documentation, which you can access by running ?lego_sales in the Console or using the Help menu in RStudio to search for lego_sales. You can also find this information here.

Exercises

Answer the following questions using pipelines. For each question, state your answer in a sentence, e.g.In this sample, the first three common names of purchasers are . Note that the answers to all questions are within the context of this particular sample of sales, i.e.you shouldnt make inferences about the population of all Lego sales based on this sample.

What are the three most common first names of purchasers?

lego_sales %>%
  count(first_name, sort = TRUE)

## # A tibble: 211 x 2
##    first_name     n
##    <chr>      <int>
##  1 Jackson       13
##  2 Jacob         11
##  3 Joseph        11
##  4 Michael       10
##  5 Audrey         8
##  6 Connor         8
##  7 Kaitlyn        8
##  8 Lucas          8
##  9 Amanda         7
## 10 Joshua         7
## #  with 201 more rows

 In this sample, the three common first names of purchasers are Jackson, Jacob, Joseph

What are the three most common themes of Lego sets purchased?

## # A tibble: 25 x 2
##    theme            n
##    <chr>        <int>
##  1 Star Wars       75
##  2 Nexo Knights    64
##  3 Gear            55
##  4 Mixels          55
##  5 City            45
##  6 Friends         42
##  7 Ninjago         38
##  8 Duplo           35
##  9 Bionicle        34
## 10 Creator         25
## #  with 15 more rows
…
## # A tibble: 5 x 2
##   age_group    total_spent
##   <chr>              <dbl>
## 1 36 - 50            9533.
## 2 26 - 35            7576.
## 3 19 - 25            4939.
## 4 51 and over        2475.
## 5 18 and under        949.

 In this sample group of 36-50 yohas spent the most money on Legos.

Which Lego theme has made the most money for Lego?

## # A tibble: 25 x 2
##    theme        total_spent
##    <chr>              <dbl>
##  1 Star Wars          4448.
##  2 Ninjago            2279.
##  3 City               2211.
##  4 Nexo Knights       2209.
##  5 Minecraft          1550.
##  6 Gear               1533.
##  7 Friends            1279.
##  8 Duplo              1220.
##  9 Elves              1120.
## 10 Ghostbusters        880.
## #  with 15 more rows

 In this sample Star Wars has made the most money for Lego

Which area code has spent the most money on Legos? In the US the area code is the first 3 digits of a phone number.

## # A tibble: 157 x 2
##    `substr(phone_number, 1, 3)` total_spent
##    <chr>                              <dbl>
##  1 <NA>                               3993.
##  2 956                                 720.
##  3 973                                 685.
##  4 567                                 550.
##  5 281                                 465.
##  6 316                                 438.
##  7 339                                 426.
##  8 209                                 350.
##  9 423                                 340.
## 10 778                                 335.
## #  with 147 more rows
…
