Lab 03 - Nobel laureates
…
   Knit, commit, and push your changes to GitHub with an appropriate commit message. Make sure to commit and push all changed files so that your Git pane is cleared up afterwards.

Heres where those immigrant Nobelists were born

Note that your bar plot wont exactly match the one from the Buzzfeed article. This is likely because the data has been updated since the article was published.

In a single pipeline, filter for laureates who won their prize in the US, but were born outside of the US, and then create a frequency table (with the count() function) for their birth country (born_country) and arrange the resulting data frame in descending order of number of observations for each country. Which country is the most common?

## # A tibble: 21 x 2
##    born_country       n
##    <chr>          <int>
##  1 Germany            7
##  2 United Kingdom     7
##  3 China              5
##  4 Canada             4
##  5 Japan              3
##  6 Australia          2
##  7 Israel             2
##  8 Norway             2
##  9 Austria            1
## 10 Finland            1
## #  with 11 more rows
…
